{
  "response": {
    "status": "ok",
    "userTier": "developer",
    "total": 2310539,
    "startIndex": 1,
    "pageSize": 10,
    "currentPage": 1,
    "pages": 231054,
    "orderBy": "newest",
    "results": [
      {
        "id": "world/live/2021/nov/26/covid-news-live-new-variant-sparks-tougher-restrictions-in-india-and-singapore-ahead-of-who-meeting",
        "type": "liveblog",
        "sectionId": "world",
        "sectionName": "World news",
        "webPublicationDate": "2021-11-26T23:37:50Z",
        "webTitle": "Covid live: WHO and Europe class Omicron as variant of concern; US and Canada bring in travel curbs",
        "webUrl": "https://www.theguardian.com/world/live/2021/nov/26/covid-news-live-new-variant-sparks-tougher-restrictions-in-india-and-singapore-ahead-of-who-meeting",
        "apiUrl": "https://content.guardianapis.com/world/live/2021/nov/26/covid-news-live-new-variant-sparks-tougher-restrictions-in-india-and-singapore-ahead-of-who-meeting",
        "isHosted": false,
        "pillarId": "pillar/news",
        "pillarName": "News"
      },
      {
        "id": "australia-news/live/2021/nov/27/australia-live-news-updates-nation-on-alert-over-new-covid-strain-warragamba-dam-spills",
        "type": "liveblog",
        "sectionId": "australia-news",
        "sectionName": "Australia news",
        "webPublicationDate": "2021-11-26T23:29:23Z",
        "webTitle": "Australia live news updates: Scott Morrison considering response to Omicron strain; five Covid deaths in Victoria; new NSW flood warnings",
        "webUrl": "https://www.theguardian.com/australia-news/live/2021/nov/27/australia-live-news-updates-nation-on-alert-over-new-covid-strain-warragamba-dam-spills",
        "apiUrl": "https://content.guardianapis.com/australia-news/live/2021/nov/27/australia-live-news-updates-nation-on-alert-over-new-covid-strain-warragamba-dam-spills",
        "isHosted": false,
        "pillarId": "pillar/news",
        "pillarName": "News"
      },
      {
        "id": "uk-news/2021/nov/26/kurdish-woman-is-first-victim-of-channel-tragedy-to-be-named",
        "type": "article",
        "sectionId": "uk-news",
        "sectionName": "UK news",
        "webPublicationDate": "2021-11-26T23:03:28Z",
        "webTitle": "Kurdish woman is first victim of Channel tragedy to be named",
        "webUrl": "https://www.theguardian.com/uk-news/2021/nov/26/kurdish-woman-is-first-victim-of-channel-tragedy-to-be-named",
        "apiUrl": "https://content.guardianapis.com/uk-news/2021/nov/26/kurdish-woman-is-first-victim-of-channel-tragedy-to-be-named",
        "isHosted": false,
        "pillarId": "pillar/news",
        "pillarName": "News"
      },
      {
        "id": "stage/2021/nov/26/stephen-sondheim-a-daring-and-dazzling-musical-theatre-icon",
        "type": "article",
        "sectionId": "stage",
        "sectionName": "Stage",
        "webPublicationDate": "2021-11-26T23:00:41Z",
        "webTitle": "Stephen Sondheim: a daring and dazzling musical theatre icon",
        "webUrl": "https://www.theguardian.com/stage/2021/nov/26/stephen-sondheim-a-daring-and-dazzling-musical-theatre-icon",
        "apiUrl": "https://content.guardianapis.com/stage/2021/nov/26/stephen-sondheim-a-daring-and-dazzling-musical-theatre-icon",
        "isHosted": false,
        "pillarId": "pillar/arts",
        "pillarName": "Arts"
      },
      {
        "id": "stage/2020/mar/17/stephen-sondheim-at-90-tribute-jake-gyllenhaal-patti-lupone-chita-rivera-nathan-lane-musical",
        "type": "article",
        "sectionId": "stage",
        "sectionName": "Stage",
        "webPublicationDate": "2021-11-26T22:45:36Z",
        "webTitle": "'His songs are like a fabulous steak': an all-star toast to Stephen Sondheim",
        "webUrl": "https://www.theguardian.com/stage/2020/mar/17/stephen-sondheim-at-90-tribute-jake-gyllenhaal-patti-lupone-chita-rivera-nathan-lane-musical",
        "apiUrl": "https://content.guardianapis.com/stage/2020/mar/17/stephen-sondheim-at-90-tribute-jake-gyllenhaal-patti-lupone-chita-rivera-nathan-lane-musical",
        "isHosted": false,
        "pillarId": "pillar/arts",
        "pillarName": "Arts"
      },
      {
        "id": "football/2021/nov/26/rafael-benitez-believes-he-will-keep-shareholder-backing-at-everton",
        "type": "article",
        "sectionId": "football",
        "sectionName": "Football",
        "webPublicationDate": "2021-11-26T22:30:40Z",
        "webTitle": "Rafael Benítez believes he will keep shareholder backing at Everton",
        "webUrl": "https://www.theguardian.com/football/2021/nov/26/rafael-benitez-believes-he-will-keep-shareholder-backing-at-everton",
        "apiUrl": "https://content.guardianapis.com/football/2021/nov/26/rafael-benitez-believes-he-will-keep-shareholder-backing-at-everton",
        "isHosted": false,
        "pillarId": "pillar/sport",
        "pillarName": "Sport"
      },
      {
        "id": "football/2021/nov/26/klopp-urges-mane-to-pay-back-with-football-when-opponents-provoke-him",
        "type": "article",
        "sectionId": "football",
        "sectionName": "Football",
        "webPublicationDate": "2021-11-26T22:30:40Z",
        "webTitle": "Klopp urges Mané to ‘pay back with football’ when opponents provoke him",
        "webUrl": "https://www.theguardian.com/football/2021/nov/26/klopp-urges-mane-to-pay-back-with-football-when-opponents-provoke-him",
        "apiUrl": "https://content.guardianapis.com/football/2021/nov/26/klopp-urges-mane-to-pay-back-with-football-when-opponents-provoke-him",
        "isHosted": false,
        "pillarId": "pillar/sport",
        "pillarName": "Sport"
      },
      {
        "id": "football/2021/nov/26/mikel-arteta-has-faith-nicolas-pepe-can-rediscover-form-at-arsenal",
        "type": "article",
        "sectionId": "football",
        "sectionName": "Football",
        "webPublicationDate": "2021-11-26T22:30:40Z",
        "webTitle": "Mikel Arteta has faith Nicolas Pepé can rediscover form at Arsenal",
        "webUrl": "https://www.theguardian.com/football/2021/nov/26/mikel-arteta-has-faith-nicolas-pepe-can-rediscover-form-at-arsenal",
        "apiUrl": "https://content.guardianapis.com/football/2021/nov/26/mikel-arteta-has-faith-nicolas-pepe-can-rediscover-form-at-arsenal",
        "isHosted": false,
        "pillarId": "pillar/sport",
        "pillarName": "Sport"
      },
      {
        "id": "stage/2021/nov/26/stephen-sondheim-composer-lyricist-musical-west-side-story-follies-company",
        "type": "article",
        "sectionId": "stage",
        "sectionName": "Stage",
        "webPublicationDate": "2021-11-26T22:21:41Z",
        "webTitle": "Stephen Sondheim: master craftsman who reinvented the musical dies aged 91",
        "webUrl": "https://www.theguardian.com/stage/2021/nov/26/stephen-sondheim-composer-lyricist-musical-west-side-story-follies-company",
        "apiUrl": "https://content.guardianapis.com/stage/2021/nov/26/stephen-sondheim-composer-lyricist-musical-west-side-story-follies-company",
        "isHosted": false,
        "pillarId": "pillar/arts",
        "pillarName": "Arts"
      },
      {
        "id": "sport/2021/nov/26/exeters-sam-simmonds-leaves-it-late-to-crush-baths-hopes-of-a-first-win",
        "type": "article",
        "sectionId": "sport",
        "sectionName": "Sport",
        "webPublicationDate": "2021-11-26T21:59:43Z",
        "webTitle": "Exeter’s Sam Simmonds leaves it late to crush Bath’s hopes of a first win",
        "webUrl": "https://www.theguardian.com/sport/2021/nov/26/exeters-sam-simmonds-leaves-it-late-to-crush-baths-hopes-of-a-first-win",
        "apiUrl": "https://content.guardianapis.com/sport/2021/nov/26/exeters-sam-simmonds-leaves-it-late-to-crush-baths-hopes-of-a-first-win",
        "isHosted": false,
        "pillarId": "pillar/sport",
        "pillarName": "Sport"
      }
    ]
  }
}