{
  "response": {
    "status": "ok",
    "userTier": "developer",
    "total": 1983,
    "startIndex": 1,
    "pageSize": 10,
    "currentPage": 1,
    "pages": 199,
    "orderBy": "relevance",
    "results": [
      {
        "id": "money/2021/oct/25/we-waited-months-for-tesla-to-repair-accident-damage",
        "type": "article",
        "sectionId": "money",
        "sectionName": "Money",
        "webPublicationDate": "2021-10-25T06:00:33Z",
        "webTitle": "We waited months for Tesla to repair accident damage",
        "webUrl": "https://www.theguardian.com/money/2021/oct/25/we-waited-months-for-tesla-to-repair-accident-damage",
        "apiUrl": "https://content.guardianapis.com/money/2021/oct/25/we-waited-months-for-tesla-to-repair-accident-damage",
        "isHosted": false,
        "pillarId": "pillar/lifestyle",
        "pillarName": "Lifestyle"
      },
      {
        "id": "technology/2021/oct/25/tesla-model-3-is-first-battery-electric-car-to-top-europe-monthly-sales-chart",
        "type": "article",
        "sectionId": "technology",
        "sectionName": "Technology",
        "webPublicationDate": "2021-10-25T17:18:32Z",
        "webTitle": "Tesla breaks $1tn valuation barrier after Hertz orders 100,000 vehicles",
        "webUrl": "https://www.theguardian.com/technology/2021/oct/25/tesla-model-3-is-first-battery-electric-car-to-top-europe-monthly-sales-chart",
        "apiUrl": "https://content.guardianapis.com/technology/2021/oct/25/tesla-model-3-is-first-battery-electric-car-to-top-europe-monthly-sales-chart",
        "isHosted": false,
        "pillarId": "pillar/news",
        "pillarName": "News"
      },
      {
        "id": "technology/2021/nov/11/elon-musk-sells-some-tesla-stock-but-was-it-really-because-of-twitter-poll",
        "type": "article",
        "sectionId": "technology",
        "sectionName": "Technology",
        "webPublicationDate": "2021-11-11T05:47:23Z",
        "webTitle": "Elon Musk sells $5bn in Tesla stock days after Twitter poll",
        "webUrl": "https://www.theguardian.com/technology/2021/nov/11/elon-musk-sells-some-tesla-stock-but-was-it-really-because-of-twitter-poll",
        "apiUrl": "https://content.guardianapis.com/technology/2021/nov/11/elon-musk-sells-some-tesla-stock-but-was-it-really-because-of-twitter-poll",
        "isHosted": false,
        "pillarId": "pillar/news",
        "pillarName": "News"
      },
      {
        "id": "technology/2021/oct/20/tesla-third-quarter-net-earnings-global-supply-chain",
        "type": "article",
        "sectionId": "technology",
        "sectionName": "Technology",
        "webPublicationDate": "2021-10-20T23:35:19Z",
        "webTitle": "Tesla reports record quarterly earnings despite global supply chain meltdown",
        "webUrl": "https://www.theguardian.com/technology/2021/oct/20/tesla-third-quarter-net-earnings-global-supply-chain",
        "apiUrl": "https://content.guardianapis.com/technology/2021/oct/20/tesla-third-quarter-net-earnings-global-supply-chain",
        "isHosted": false,
        "pillarId": "pillar/news",
        "pillarName": "News"
      },
      {
        "id": "commentisfree/2021/oct/30/hertzs-supercharged-tesla-deal-could-haul-us-into-the-electric-vehicle-age",
        "type": "article",
        "sectionId": "commentisfree",
        "sectionName": "Opinion",
        "webPublicationDate": "2021-10-30T15:00:02Z",
        "webTitle": "Hertz’s supercharged Tesla deal could haul us into the electric vehicle age | John Naughton",
        "webUrl": "https://www.theguardian.com/commentisfree/2021/oct/30/hertzs-supercharged-tesla-deal-could-haul-us-into-the-electric-vehicle-age",
        "apiUrl": "https://content.guardianapis.com/commentisfree/2021/oct/30/hertzs-supercharged-tesla-deal-could-haul-us-into-the-electric-vehicle-age",
        "isHosted": false,
        "pillarId": "pillar/opinion",
        "pillarName": "Opinion"
      },
      {
        "id": "technology/2021/oct/07/tesla-moving-texas-elon-musk-california",
        "type": "article",
        "sectionId": "technology",
        "sectionName": "Technology",
        "webPublicationDate": "2021-10-08T13:40:46Z",
        "webTitle": "Tesla headquarters will move from California to Texas, Elon Musk says",
        "webUrl": "https://www.theguardian.com/technology/2021/oct/07/tesla-moving-texas-elon-musk-california",
        "apiUrl": "https://content.guardianapis.com/technology/2021/oct/07/tesla-moving-texas-elon-musk-california",
        "isHosted": false,
        "pillarId": "pillar/news",
        "pillarName": "News"
      },
      {
        "id": "technology/2021/oct/05/tesla-pays-137m-black-former-employee",
        "type": "article",
        "sectionId": "technology",
        "sectionName": "Technology",
        "webPublicationDate": "2021-10-05T14:40:05Z",
        "webTitle": "Tesla ordered to pay $137m to Black former employee for racial abuse",
        "webUrl": "https://www.theguardian.com/technology/2021/oct/05/tesla-pays-137m-black-former-employee",
        "apiUrl": "https://content.guardianapis.com/technology/2021/oct/05/tesla-pays-137m-black-former-employee",
        "isHosted": false,
        "pillarId": "pillar/news",
        "pillarName": "News"
      },
      {
        "id": "technology/2021/nov/08/will-elon-musk-abide-by-twitter-poll-and-sell-10-of-his-tesla-shares",
        "type": "article",
        "sectionId": "technology",
        "sectionName": "Technology",
        "webPublicationDate": "2021-11-08T13:38:45Z",
        "webTitle": "Will Elon Musk abide by Twitter poll and sell 10% of his Tesla shares?",
        "webUrl": "https://www.theguardian.com/technology/2021/nov/08/will-elon-musk-abide-by-twitter-poll-and-sell-10-of-his-tesla-shares",
        "apiUrl": "https://content.guardianapis.com/technology/2021/nov/08/will-elon-musk-abide-by-twitter-poll-and-sell-10-of-his-tesla-shares",
        "isHosted": false,
        "pillarId": "pillar/news",
        "pillarName": "News"
      },
      {
        "id": "technology/2021/sep/18/florida-tesla-crash-autopilot-fire-national-federal-transportation-board",
        "type": "article",
        "sectionId": "technology",
        "sectionName": "Technology",
        "webPublicationDate": "2021-09-18T21:01:50Z",
        "webTitle": "Florida Tesla crash which killed two will be investigated by federal board",
        "webUrl": "https://www.theguardian.com/technology/2021/sep/18/florida-tesla-crash-autopilot-fire-national-federal-transportation-board",
        "apiUrl": "https://content.guardianapis.com/technology/2021/sep/18/florida-tesla-crash-autopilot-fire-national-federal-transportation-board",
        "isHosted": false,
        "pillarId": "pillar/news",
        "pillarName": "News"
      },
      {
        "id": "technology/2021/aug/20/humanoid-tesla-bot-likely-to-launch-next-year-says-elon-musk",
        "type": "article",
        "sectionId": "technology",
        "sectionName": "Technology",
        "webPublicationDate": "2021-08-20T15:01:49Z",
        "webTitle": "Humanoid ‘Tesla Bot’ likely to launch next year, says Elon Musk",
        "webUrl": "https://www.theguardian.com/technology/2021/aug/20/humanoid-tesla-bot-likely-to-launch-next-year-says-elon-musk",
        "apiUrl": "https://content.guardianapis.com/technology/2021/aug/20/humanoid-tesla-bot-likely-to-launch-next-year-says-elon-musk",
        "isHosted": false,
        "pillarId": "pillar/news",
        "pillarName": "News"
      }
    ]
  }
}